%YAML 1.1
%TAG !u! tag:unity3d.com,2011:
--- !u!78 &1
TagManager:
  serializedVersion: 2
  tags:
  - Character
  - CPU
  - Floor
  - HitBox
  - HurtBox
  - tops_body
  - tops_L
  - tops_R
  - tops_body_opt
  - skin
  - hair_front
  - hair_front_opt
  - hair_acc
  - hair_acc_opt
  - face_acc
  - eye
  - mouth
  - bottoms_skirt
  - bottoms_L
  - bottoms_R
  - shoes_L
  - shoes_R
  - socks_L
  - socks_R
  - hair_back_01
  - hair_back_02
  - hair_back_opt
  layers:
  - Default
  - TransparentFX
  - Ignore Raycast
  - 
  - Water
  - UI
  - 
  - 
  - BackGround
  - Match
  - HP
  - 
  - CPU
  - Player
  - HitBox_CPU
  - Floor
  - SPCutIn
  - SPParticle
  - 
  - 
  - 
  - 
  - 
  - 
  - 
  - 
  - 
  - 
  - 
  - 
  - 
  - 
  m_SortingLayers:
  - name: BackGround
    uniqueID: 3405149999
    locked: 0
  - name: Default
    uniqueID: 0
    locked: 0
  - name: Match
    uniqueID: 1540567535
    locked: 0
  - name: HP
    uniqueID: 2216651451
    locked: 0
  - name: CPU
    uniqueID: 1611225635
    locked: 0
  - name: Player
    uniqueID: 3781868007
    locked: 0
  - name: UI
    uniqueID: 1529594021
    locked: 0
  - name: SPCutIn
    uniqueID: 3224319585
    locked: 0
  - name: SPParticle
    uniqueID: 2861377601
    locked: 0
