%YAML 1.1
%TAG !u! tag:unity3d.com,2011:
--- !u!114 &11400000
MonoBehaviour:
  m_ObjectHideFlags: 0
  m_CorrespondingSourceObject: {fileID: 0}
  m_PrefabInstance: {fileID: 0}
  m_PrefabAsset: {fileID: 0}
  m_GameObject: {fileID: 0}
  m_Enabled: 1
  m_EditorHideFlags: 0
  m_Script: {fileID: 11500000, guid: ab06d2d1585f94e4f882727656ff8cfa, type: 3}
  m_Name: AssetGraphEditor
  m_EditorClassIdentifier: 
  m_assetBundleBuildCacheDir: AssetBandleBuildCache
